5 Manipulando dados no R – Bioestatística Usando o R
…
5.6.1 Leitura dos dados

Para ler arquivos do Excel (.xlsx), o pacote ideal é o readxl, que também faz parte do tidyverse. Ele é leve, rápido e não depende do Excel instalado. A função a ser usada é read_excel(). O objeto mater será utilizado para receber os dados:

mater <- readxl::read_excel("dados/dadosMater.xlsx")

Importante

O comando para carregar o conjunto de dados somente funciona ,sem colocar o caminho completo, se tudo está sendo realizado no diretório de trabalho

Como rotina, em análise de dados, após a leitura é interessante explorar a estrutura do dados. A função as_tibble() é interessante para ver a estrutura de um tibble:

as_tibble(mater)

# A tibble: 1,368 × 30
      id idadeMae altura  peso ganhoPeso anosEst   cor eCivil renda  fumo
   <dbl>    <dbl>  <dbl> <dbl>     <dbl>   <dbl> <dbl>  <dbl> <dbl> <dbl>
 1     1       42   1.65  69.9       3.9       3     2      1  1.45     2
 2     2       29   1.66  78        16.5      11     1      2  2.41     2
 3     3       19   1.72  81         5         9     2      1  1.93     2
 4     4       31   1.55  74        43         5     2      2  1.45     2
 5     5       34   1.6   60        15         7     2      2  0.48     2
 6     6       29   1.5   60        11.4       8     2      2  0.96     1
 7     7       30   1.54  75.5      10.5       4     1      2  1.2      1
 8     8       34   1.63  61         9         6     1      2  2.41     2
 9     9       17   1.68  57        15        10     1      2  2.17     2
10    10       32   1.5   70        11.4       1     2      2  0.72     2
# ℹ 1,358 more rows
# ℹ 20 more variables: quantFumo <dbl>, prenatal <dbl>, para <dbl>,
#   droga <dbl>, ig <dbl>, tipoParto <dbl>, pesoPla <dbl>, sexo <dbl>,
#   pesoRN <dbl>, compRN <dbl>, pcRN <dbl>, apgar1 <dbl>, apgar5 <dbl>,
#   utiNeo <dbl>, obito <dbl>, hiv <dbl>, sifilis <dbl>, rubeola <dbl>,
#   toxo <dbl>, infCong <dbl>
…
